{
    "modules": [
        {
            "config": {
                "position": [
                    150,
                    173
                ]
            },
            "name": "New Model Object",
            "value": {
                "actionGroup": {
                    "_default0_list": false,
                    "_default1_show": false,
                    "_default2_new_create": false,
                    "_default3_edit_update": false,
                    "_default4_delete": false,
                    "customActions": [
                        "displayTitle",
                        "haveFun"
                    ]
                },
                "name": "ThingsDisplayer",
                "objectsettings": {
                    "addDeletedField": true,
                    "addHiddenField": true,
                    "addStarttimeEndtimeFields": true,
                    "aggregateRoot": false,
                    "categorizable": false,
                    "description": "",
                    "mapToTable": "",
                    "parentClass": "",
                    "skipTypeConfiguration": false,
                    "sorting": false,
                    "type": "Entity",
                    "uid": "64182004146"
                },
                "propertyGroup": {
                    "properties": []
                },
                "relationGroup": {
                    "relations": []
                }
            }
        }
    ],
    "properties": {
        "backendModules": [],
        "description": "A simple extension for live coding",
        "emConf": {
            "category": "plugin",
            "custom_category": "",
            "dependsOn": "typo3 => 8.7.0-8.7.99\n",
            "disableLocalization": false,
            "disableVersioning": false,
            "skipGenerateDocumentationTemplate": false,
            "sourceLanguage": "en",
            "state": "alpha",
            "targetVersion": "8.7.0-8.7.99",
            "version": "1.0.0"
        },
        "extensionKey": "typo_3_pretty_extension_live",
        "name": "typo-3-pretty-extension-live",
        "originalExtensionKey": "typo_3_pretty_extension_live",
        "originalVendorName": "Fmontalbano",
        "persons": [
            {
                "company": "",
                "email": "",
                "name": "Florian",
                "role": "Developer"
            }
        ],
        "plugins": [
            {
                "actions": {
                    "controllerActionCombinations": "ThingsDisplayer=>displayTitle,haveFun",
                    "noncacheableActions": "",
                    "switchableActions": "First Demo LIVE\nThingsDisplayer->displayTitle;\nSecond Demo LIVE\nThingsDisplayer->haveFun;"
                },
                "description": "Can display things ;)\nFor live coding",
                "key": "livethingsdisplayer",
                "name": "LIVE Things Displayer"
            }
        ],
        "vendorName": "Fmontalbano"
    },
    "wires": [],
    "log": {
        "last_modified": "2018-10-02 11:43",
        "extension_builder_version": "8.10.2",
        "be_user": " (1)"
    }
}